[gd_scene load_steps=6 format=2]

[ext_resource path="res://scripts/world.gd" type="Script" id=1]
[ext_resource path="res://scenes/entities/Player.tscn" type="PackedScene" id=2]
[ext_resource path="res://scripts/platformer-framework/collision_handler.gd" type="Script" id=3]
[ext_resource path="res://scenes/effects/StarParticles.tscn" type="PackedScene" id=4]
[ext_resource path="res://textures/ui/tile_cursor.png" type="Texture" id=5]

[node name="World" type="Control" index="0"]

anchor_left = 0.0
anchor_top = 0.0
anchor_right = 0.0
anchor_bottom = 0.0
rect_pivot_offset = Vector2( 0, 0 )
rect_clip_content = false
mouse_filter = 0
mouse_default_cursor_shape = 0
size_flags_horizontal = 1
size_flags_vertical = 1
script = ExtResource( 1 )
_sections_unfolded = [ "Visibility" ]

[node name="Player" parent="." index="0" instance=ExtResource( 2 )]

[node name="CollisionHandler" type="Node2D" parent="." index="1"]

script = ExtResource( 3 )
__meta__ = {
"_edit_lock_": true
}

[node name="StarParticles" parent="." index="2" instance=ExtResource( 4 )]

[node name="TileCursor" type="Sprite" parent="." index="3"]

visible = false
texture = ExtResource( 5 )
centered = false
_sections_unfolded = [ "Offset", "Visibility" ]


