[gd_scene load_steps=4 format=2]

[ext_resource path="res://textures/effects/star.png" type="Texture" id=1]
[ext_resource path="res://scripts/platformer-framework/particles_extended.gd" type="Script" id=2]

[sub_resource type="ParticlesMaterial" id=1]

render_priority = 0
trail_divisor = 1
emission_shape = 0
flag_align_y = false
flag_rotate_y = true
flag_disable_z = true
spread = 45.0
flatness = 0.0
gravity = Vector3( 0, 98, 0 )
initial_velocity = 1.0
initial_velocity_random = 0.0
angular_velocity = 1.0
angular_velocity_random = 0.0
orbit_velocity = 0.0
orbit_velocity_random = 0.0
linear_accel = 0.0
linear_accel_random = 0.0
radial_accel = 0.0
radial_accel_random = 0.0
tangential_accel = 0.0
tangential_accel_random = 0.0
damping = 0.0
damping_random = 0.0
angle = 0.0
angle_random = 0.0
scale = 1.0
scale_random = 0.0
color = Color( 1, 1, 1, 1 )
hue_variation = 0.0
hue_variation_random = 0.0
anim_speed = 0.0
anim_speed_random = 0.0
anim_offset = 0.0
anim_offset_random = 0.0
anim_loop = false
_sections_unfolded = [ "Angular Velocity", "Emission Shape", "Flags", "Gravity", "Initial Velocity", "Scale", "Spread", "Trail" ]

[node name="StarParticles" type="Particles2D"]

emitting = false
amount = 1
lifetime = 1.0
one_shot = false
preprocess = 0.0
speed_scale = 1.0
explosiveness = 0.0
randomness = 0.0
fixed_fps = 0
fract_delta = true
visibility_rect = Rect2( -100, -100, 200, 200 )
local_coords = true
draw_order = 0
process_material = SubResource( 1 )
texture = ExtResource( 1 )
normal_map = null
h_frames = 1
v_frames = 1
script = ExtResource( 2 )
_sections_unfolded = [ "Drawing", "Process Material", "Textures", "Time", "Transform", "Visibility" ]


